868186 862260 388
516842 219571 470
427733 848465 525
119871 404967 443
657923 205685 509
784386 198751 509
610922 494205 470
222557 902352 525
646596 381956 509
127067 217272 386
259781 262412 345
755983 357390 509
532607 381222 470
308412 100348 443
707691 34431 509
359328 170697 443
458380 699833 509
371436 771753 509
744034 271973 509
995545 723102 525
678403 99910 509
693046 349129 509
677635 548551 509
689647 377964 509
148064 870394 525
452931 512570 470
171110 551836 470
771355 964743 525
274332 230197 443
539935 285134 470
524942 504866 470
460985 703867 509
241123 374842 441
232034 373116 441
159114 888312 525
530665 531001 346
545517 776391 509
443719 993029 525
457982 888156 525
513658 979857 525
415673 108962 449
183244 261713 443
469024 366182 449
728899 411744 509
582915 963762 525
569815 299842 470
833814 582227 509
731288 227544 509
681480 250805 509
972876 507750 525
470061 572842 470
621548 803680 509
374295 380283 423
118474 342523 443
466640 112924 449
535950 76335 470
949566 938887 507
796248 602877 509
128341 465058 449
850859 472009 525
495280 213825 449
202531 539773 470
615278 158605 470
176450 281761 443
78137 955216 525
645376 860482 525
513634 246275 470
316409 268608 407
922761 270560 525
215212 413977 449
916158 558682 525
469691 688141 509
25611 898657 525
755256 729857 424
635539 659176 429
141743 619740 470
914209 72884 525
934404 78430 525
141980 806250 509
794637 992034 525
487941 72399 449
635581 124572 509
27250 655847 509
166120 929027 525
840820 523589 525
188850 385630 443
103507 509779 449
169265 780483 509
34624 916297 525
147062 508000 449
763156 783581 468
681309 730641 504
34411 296687 443
130186 551127 470
441365 495522 444
755640 446906 509
358358 355961 379
293121 694441 509
514793 296402 470
468586 882633 525
449831 18760 449
40543 491551 449
279488 903701 525
24935 185822 383
697305 739223 504
853381 896794 445
892505 445938 525
659011 882416 525
898110 301513 525
884298 730842 525
100371 996567 525
245666 128663 443
96222 999099 525
968653 660765 525
216096 426439 449
413999 358779 449
149101 2074 375
24432 795028 509
51702 4641 324
730466 439253 509
650222 279530 509
29887 519771 470
545741 547697 452
280325 400505 441
699099 818904 504
480444 394296 449
304339 47138 443
767564 72795 509
955368 974437 458
269220 528084 470
74315 407195 443
506332 409181 449
744012 939308 525
502796 671269 509
951538 147808 525
673587 711735 504
269149 611455 470
109004 554888 470
640000 301189 509
85581 148786 375
339428 817061 509
698165 719047 504
32808 150228 375
161356 792335 509
207466 306194 443
155647 978469 525
705705 562631 509
772090 38585 509
521489 385634 470
388921 800391 509
921592 372878 525
251594 664007 509
247137 870819 525
20745 493535 449
89724 894652 525
810683 135644 509
761815 293981 509
758924 207253 509
690196 866617 525
319281 641571 509
307979 348374 441
681163 89543 509
250104 235538 368
849050 923890 476
686906 90181 509
921218 4150 525
682456 986847 525
508 337775 443
631385 339205 509
965146 603928 525
385566 232052 441
231122 469060 449
132366 381933 443
426201 937621 525
25545 987026 525
181060 284675 443
236675 542916 470
682404 572865 509
967194 48370 525
621252 652744 509
364435 502501 449
22758 688476 509
625576 113897 470
571750 561273 421
377177 637741 509
47922 705665 509
852689 295496 525
908358 742643 525
981183 886706 507
777903 397752 509
34336 246574 443
711091 261652 509
756920 904732 525
242772 696989 509
605464 128894 470
367936 749289 509
515150 633043 509
307576 574849 470
86926 298046 443
802397 643318 504
882823 256379 525
922900 573701 525
582453 599524 434
544122 721681 509
488787 737489 509
424029 671105 509
626128 986362 525
928219 198443 525
290307 101818 443
47259 375873 443
330299 985746 525
423058 252825 449
710211 654546 504
149382 464105 449
38805 285384 443
93070 454212 449
495305 188096 449
500479 21131 449
828036 910581 525
848437 698796 525
486242 187340 449
812430 982956 525
460435 622935 470
214774 230609 386
188546 895526 525
947089 486298 525
828582 100574 509
46384 838195 525
198978 646928 509
882969 405926 525
856671 24615 525
674980 849620 525
930707 466809 525
454832 265067 449
356975 89271 443
865013 403265 525
633367 613317 509
570469 913084 525
606592 173499 470
896172 222018 525
116650 871135 525
600748 321180 470
275621 569602 470
665024 984536 525
807948 976601 525
276460 34414 443
417366 826178 509
311255 262154 407
302864 729950 509
819870 630564 504
173665 352332 443
911849 877726 476
814390 707317 468
909918 371570 525
275240 265764 407
873884 532928 525
458344 959330 525
303162 478851 449
388720 448276 449
208501 747037 509
274914 839759 525
416418 648273 509
496742 229811 449
132782 495864 449
404157 75896 443
320660 561734 470
875880 652974 525
475207 480158 382
993884 123385 525
532512 325732 470
734391 477825 509
696665 631 509
264298 215513 443
988168 182214 525
87985 131883 354
701508 50419 509
545791 180836 470
665444 350828 509
370883 661694 509
