615423 176493 470
281567 963599 525
432015 919759 525
758054 86275 509
525766 102765 470
336017 68747 443
631007 53880 509
148412 574339 470
398899 395019 374
918276 95215 525
37411 709505 509
920653 36657 525
732031 905237 525
148707 2256 375
136959 365270 443
955447 602905 525
5996 526218 470
245968 7053 443
278468 890926 525
382121 863470 525
438472 429230 387
226563 578140 470
30229 755615 509
545355 675403 509
441685 365169 449
740735 631745 504
404077 835627 509
692450 426917 509
157524 65301 383
935042 825545 525
296237 382070 441
408071 119563 443
872537 23963 525
805075 396180 509
445829 870363 525
292740 419649 449
89098 743262 509
129362 889376 525
183331 663034 509
348597 288936 441
543823 29971 470
121395 584414 470
856655 572240 525
928729 49352 525
742950 561922 509
213231 760908 509
421921 547769 470
404179 606914 470
704576 576828 509
841661 910497 476
591824 672306 509
156233 54794 383
313111 954017 525
29355 523488 470
243539 528283 470
419685 144499 449
719110 549757 509
775706 258396 509
737343 627176 504
701890 34904 509
54380 111353 354
548563 986389 525
597041 488464 470
739927 967733 525
262559 455530 449
214452 468952 449
744806 349074 509
553831 24505 470
114428 706040 509
716652 552815 509
528722 798860 509
218349 768138 509
955597 99097 525
757344 571535 509
229263 945662 525
129234 552885 470
313764 963191 525
113573 820413 509
987013 697441 525
699631 122102 509
391691 875956 525
281077 303542 389
514980 28700 470
603427 980996 525
47667 58067 340
345167 909596 525
802640 982506 525
111760 244242 443
650714 801095 504
412406 465926 444
99885 826384 509
362827 232953 441
2582 757355 509
456541 130369 449
575248 540967 452
22173 638597 509
523475 121572 470
42606 575399 470
455379 671616 509
677536 456454 509
294010 516750 470
966731 962570 414
367570 594473 470
731314 946951 525
959519 968654 414
310331 277830 389
28759 87653 351
99602 296346 443
932964 972010 507
229008 414334 449
648719 729886 504
659114 298106 509
207620 532713 470
196413 557089 470
984162 439353 525
232544 332745 407
145950 243413 443
811143 75427 509
155152 944357 525
994032 95669 525
29628 913905 525
248446 238896 368
189092 551954 470
609612 548 470
669367 599833 509
363254 863343 525
448223 844722 525
901089 38899 525
734883 209574 509
823180 151534 509
559889 248566 470
182919 866113 525
522883 501716 470
575550 878348 525
713605 541742 509
957379 39937 525
817446 10618 509
260216 414844 449
582682 986952 525
737243 484971 509
559421 158650 470
429690 171476 449
548134 43037 470
452128 990575 525
648292 66517 509
939273 331847 525
841285 484038 525
528868 481885 470
66462 5712 340
505046 422752 444
862552 928319 476
587567 359241 470
463209 805313 509
724516 644982 504
47309 238776 443
499261 846559 525
990618 417181 525
410815 76696 449
412985 861516 525
307575 714187 509
799499 744070 468
738828 177642 509
507112 262443 449
673562 52495 509
462909 632019 509
274787 265985 407
217595 373842 443
53870 44550 340
177496 182294 365
80365 186006 383
412679 249617 449
390761 802387 509
410110 798972 509
863181 218567 525
562803 953490 525
796955 826403 450
749962 275768 509
502337 771864 509
271314 638398 509
679871 461700 509
619066 653744 509
719146 938535 525
909029 832529 525
853187 889636 445
161274 353328 443
475317 777539 509
860243 132303 525
967453 39704 525
955878 389903 525
216077 177285 373
504152 564734 470
497507 311524 449
449055 84324 449
470371 478656 382
733514 532567 509
438990 982670 525
788684 129700 509
59217 659717 509
46555 330313 443
290044 571583 470
925175 265684 525
392300 475467 449
735304 284751 509
908890 724034 525
205962 665117 509
314266 801914 509
172382 266317 443
620545 274356 470
32252 7505 308
814028 341930 509
511782 731554 509
218538 881692 525
32661 85677 351
74213 547284 470
252882 535364 470
122099 679800 509
295076 6818 443
422142 264070 449
196429 952866 525
380104 802576 509
853000 533258 525
370536 276430 441
413096 893432 525
696087 270751 509
695296 16800 509
342920 205794 443
231502 501242 449
449995 428738 400
725413 742304 424
745581 478100 509
591344 87429 470
930594 351527 525
443364 121755 449
804272 462643 509
449599 733028 509
539622 630124 509
887847 376292 525
959248 427541 525
983968 166285 525
656734 524758 509
917161 156500 525
654085 998807 525
569941 753165 509
120143 130866 344
707365 936257 525
210104 237166 443
719431 330920 509
519744 894743 525
940084 669572 525
994439 535425 525
504707 825359 509
648058 125540 509
132043 954034 525
444400 491686 444
538675 511215 470
645560 392781 509
844398 581968 525
302865 934833 525
597205 418607 470
406492 162768 443
209089 186397 373
859922 695037 525
338648 969037 525
783464 31990 509
49249 681200 509
444607 687871 509
919051 481303 525
