837610 372177
554229 877043
169325 458045
10610 538256
788473 904283
374336 190381
671347 303595
524358 458376
980279 417408
244018 108081
310400 644787
876413 778773
432318 524772
161080 308615
860515 606288
296586 993151
860885 473768
682879 926326
240876 327804
703513 346025
856114 136381
369021 767362
535534 356933
711407 532615
990252 930610
874988 806406
291282 113039
170601 123532
317585 1070
762033 779845
106665 854148
188530 315171
439239 456187
143944 547350
662098 353414
45826 366625
419618 517638
77276 4800
70772 130395
731942 714358
117796 456946
867584 324889
14281 992835
329974 788482
48792 141399
773943 463752
878693 558560
207987 600781
482563 401876
341133 549072
238012 238473
771194 741373
425231 768110
695979 226600
19207 381382
769503 786371
808193 84054
779 103554
868939 634575
251484 944644
466107 900047
855234 359073
93525 985339
277393 121579
345993 957216
335683 115809
696641 775004
410250 49042
374092 77603
962511 308199
487500 505993
16566 51181
674684 403345
367766 277302
576512 157526
69740 762345
938323 284954
185233 747299
363766 869084
337921 743644
566988 784189
984203 474355
596072 261895
975699 201615
746041 123180
170660 709492
549351 731950
801008 179902
996063 407551
582740 555359
18753 534765
248450 894470
239936 228239
862911 982590
156839 775765
456141 419525
237995 243581
782357 805347
734804 393127
96973 998940
598783 118704
829973 228184
733482 233663
470581 127693
928290 854694
909060 488142
854652 978251
801405 5647
503728 923588
798014 580412
908073 32299
114402 269107
801829 186625
473292 437408
148344 766964
799478 79278
794163 717013
571723 487659
980425 310887
620322 683656
422218 398785
881270 542309
47428 84261
862960 129477
194797 86626
543573 553861
61469 485108
378560 859745
35072 63763
40798 529611
608579 514201
99397 588879
233343 327394
20065 784570
184500 368323
86716 329592
135782 666309
357426 583121
542838 991280
730375 423904
816755 703517
796731 364048
542385 99929
47506 947404
652070 389274
389593 14189
632203 637273
999692 768971
182932 637186
830575 990850
316119 11528
431283 468321
973611 406624
230590 306341
169295 477973
433250 374175
29004 213780
524013 547054
84097 775146
328883 498378
256005 419061
887518 651987
480707 772148
327227 185423
402876 155143
171632 481496
829021 934899
871314 95888
105674 577215
541268 193439
712292 316544
480325 338573
177293 755039
307140 184478
468245 347324
392003 154451
46341 181319
271201 726470
512948 928172
395400 13384
637066 676270
785453 135860
350113 636541
158886 900115
449612 479642
796834 237080
260110 12207
979144 30366
330986 971665
296622 411643
351392 884165
814964 535529
232873 911514
934364 721233
83565 307406
551338 728177
731003 636400
872442 598404
294195 733645
491886 533145
182109 828597
522698 492843
943261 806542
253147 674653
490773 672908
771247 732348
102405 242545
52730 664730
924191 555040
762001 282850
261174 788832
782394 702799
327006 10176
330134 888595
655393 377750
181794 376143
593085 165410
345317 335040
201548 494648
179731 957919
816098 340064
72835 518508
328135 963631
131789 665147
193902 628041
676523 888239
669518 909754
475361 45815
675369 974971
322059 892635
988745 842282
987424 987524
488053 489588
502592 178747
915068 169519
210004 573420
553730 120316
265360 474646
35345 555091
959037 711073
182406 904534
799668 79218
230117 447957
188139 406236
931613 881968
167568 290742
620057 348699
394034 395895
747214 821422
407177 949851
213589 970120
623367 279499
7734 320172
801827 333429
217956 484295
377080 502118
595565 404372
520902 987017
656890 467540
299706 520175
408272 513591
306612 535485
324708 384868
864831 765764
387109 596963
311543 937410
27684 46496
486710 573174
86535 92263
624096 485353
