71600 983170
535440 411048
124423 168071
891411 737129
99957 403195
76362 706797
473642 90284
623095 872315
939009 620790
754705 125100
231673 988900
102048 792141
286358 801770
290041 556073
679234 280438
74570 120930
923917 372587
298833 269117
263002 681777
155554 62165
475315 465955
127612 640816
296363 25358
923284 930011
68866 887998
264580 307861
600667 742008
362104 121767
711219 292883
552766 410470
564984 825775
388693 436500
508809 575535
77181 652411
690105 821851
431086 583682
856381 307251
85963 350749
551836 557132
449997 899439
577076 974456
221474 445913
31247 702175
390240 743835
945475 937737
807015 200451
382201 642811
343087 845422
544485 648226
901916 741982
794147 172974
788789 246386
933365 746705
51247 923679
155853 915673
623854 441620
510858 193711
807282 460296
84492 379098
614666 512863
632218 72195
460445 386304
748276 763927
507342 658009
805897 24480
879526 228588
999372 629503
772670 486814
111229 575963
884715 914425
87961 971027
379138 382949
292400 949611
78118 637434
434928 866755
20507 227620
402254 37825
89745 488278
148469 713379
410650 958156
980824 1859
144934 840337
764421 825437
972686 844572
735761 667667
35051 878599
865093 657103
766706 334568
622652 937514
947844 939641
394255 408333
205340 259037
289755 950254
96063 29890
57634 460783
355807 923442
821239 138636
21164 620540
565663 590752
349384 415398
567627 558002
68685 435502
57562 710222
150422 787902
277816 528398
256486 688731
829916 213972
509020 623437
941933 893531
184959 632077
626209 451822
908134 188934
619834 439151
794009 86056
208928 140611
798078 864045
215180 514393
70009 134401
447179 71988
423134 20005
419498 747876
5724 890336
469526 520888
250803 427874
469313 625445
162310 616217
977124 137024
116002 717401
329818 257554
380202 980825
447637 265328
498332 827997
769115 546901
86970 369967
556287 382978
867736 936985
635135 648476
22738 875399
158406 786625
597417 44139
907702 642496
323111 562905
320366 324862
135729 448679
735789 329462
567562 65616
420628 409830
101292 261226
877949 636057
95863 63820
172314 16256
231084 832908
1840 457125
253694 184056
436300 395049
135892 257553
716776 827583
555812 748791
126857 483065
930367 84617
739532 984675
595210 652403
539489 429515
258784 172850
743749 373657
184786 491368
323593 208725
595976 794104
666020 888679
682548 922984
149647 1838
931012 113501
542638 8997
391117 626921
792103 678795
853474 61457
880781 128851
737640 471189
960781 246195
875543 748519
427844 810472
786810 956346
53053 313064
803546 373812
334435 240624
919542 80246
590388 860261
375987 269401
588074 505960
283636 233182
607249 706600
404958 473610
285959 280079
576593 903430
985196 588295
653253 166028
675499 57640
600370 84098
607717 788588
369703 983153
999010 621043
24936 780756
285837 149394
440778 631741
981715 74988
171634 836451
611154 476841
255777 506247
141308 101796
332496 478428
342912 300000
54651 326066
178954 647304
