235992 126381
949537 171992
114792 277620
254079 811264
750652 924989
167611 227815
121979 866177
760442 913860
92110 709751
814590 266409
810866 692820
26835 987736
196195 199964
694152 184157
3360 712438
917384 28186
458369 523616
670381 610659
705956 255630
397139 332326
956118 478657
439450 729596
267581 121419
916860 240597
617883 906980
104266 726644
942204 788266
354168 456739
798784 56058
939306 472565
712700 951943
33556 338703
468953 886281
390378 684832
751325 322788
472328 268714
540311 281148
262049 698739
266595 788205
387141 471497
934970 700911
755737 373594
854630 471793
142260 198792
924098 647459
323856 921653
549484 95802
328219 866609
978337 681589
200609 580011
728726 960608
465573 160412
445042 495913
291146 809692
304830 21997
814919 260005
955459 795503
622024 492739
344638 930703
504947 961421
503104 834332
544412 398016
24588 595445
275810 276659
151626 839897
927117 161696
366802 195582
455492 985142
412481 917725
824103 276267
447818 899426
49675 38481
454712 273722
75353 99213
356511 709995
824415 892102
34624 512424
300551 261780
537504 425117
781945 849483
955166 314944
579870 464323
507138 358572
389804 651079
231018 185760
38262 920148
477863 811251
364477 334915
434965 223048
20367 686462
544395 704461
3358 859168
839206 680124
145519 126754
441712 994226
796237 204979
771942 956039
298605 262487
675981 851811
455434 768612
166589 661831
951115 667897
330536 995333
4896 449693
401262 46397
136048 860632
509034 736502
67701 502271
572824 653430
355471 981934
836791 365733
666190 178929
544875 575220
214461 185034
636146 137781
463011 209053
102393 10623
324913 909023
650561 857057
49300 747428
257741 490944
756919 643817
398387 825045
691225 513019
850216 111276
773657 758820
696365 423183
387683 120084
704659 751414
866483 417103
766945 224656
536439 448992
95273 579260
808309 396035
426146 639983
784795 465922
775533 639026
415531 219411
478520 640037
588361 701847
630515 305628
779316 50053
356426 125104
265128 901890
379768 786238
948875 977391
848645 671053
601310 391891
911320 361522
940100 424281
796838 295755
540971 922187
882496 917035
646031 726077
429387 145269
349052 430365
926496 616451
256751 236880
710342 605565
166304 238175
542626 845135
921065 350182
438238 869865
93073 461938
3715 343651
607240 360785
807473 228447
253123 435139
215935 439281
895046 658743
776953 661387
864703 455337
983169 721671
244478 235124
120079 777715
316869 871079
763655 299083
615363 287817
423387 11983
329179 668556
694664 773817
950811 841065
870902 307508
140027 800774
273045 264998
749234 399217
741175 993622
13246 205526
825615 613314
476114 884131
869014 544120
422828 212909
391563 556894
793933 756627
337277 758983
699572 356846
582826 49839
264417 395248
769812 407313
482099 315087
223953 666784
395753 375152
191157 18631
64 731279
884534 997762
252723 588572
441978 178676
785610 626558
937589 93418
9723 295280
226214 929916
902805 637711
85196 918209
943312 578173
795455 671494
947447 11555
199187 949410
73227 341154
779996 603817
513157 905875
715564 512529
181372 493976
984715 22849
946764 873187
85379 369586
364257 140416
662870 299300
426140 25542
155496 119132
88325 350149
882341 835755
858210 418002
866852 864362
316980 566388
271779 81571
325264 286003
43300 802619
630511 86235
82780 426092
274414 547030
363461 921204
